<svg xmlns="http://www.w3.org/2000/svg" width="500" height="500" viewBox="0 0 500 500">
  <defs>
    <style>
      .cls-1 {
        isolation: isolate;
      }

      .cls-2 {
        fill: none;
      }

      .cls-3 {
        mix-blend-mode: multiply;
      }

      .cls-4 {
        fill: #091f2e;
      }

      .cls-5 {
        fill: #286c84;
      }
    </style>
  </defs>
  <title>logo-square-escuro-bg-transp</title>
  <g class="cls-1">
    <g id="Layer_2" data-name="Layer 2">
      <g id="logos">
        <g>
          <rect class="cls-2" width="500" height="500"/>
          <g class="cls-3">
            <g>
              <path class="cls-4" d="M270.18,367.55a119.42,119.42,0,0,1-126-62.45l-9.51,4A129.71,129.71,0,0,0,271.93,377.7a128,128,0,0,0,18.23-4.58l-4-9.54A118.06,118.06,0,0,1,270.18,367.55Z"/>
              <path class="cls-5" d="M379.21,196.07,350.69,208h0a109.07,109.07,0,0,1-58.77,142.61l11.88,28.53a140,140,0,0,0,75.41-183Zm-258.62.49a139.53,139.53,0,0,0,.2,107.12l28.52-11.88a109.07,109.07,0,0,1,58.76-142.6l-11.88-28.53A139.53,139.53,0,0,0,120.59,196.56Z"/>
              <path class="cls-4" d="M209.84,126.63l4,9.54a119.52,119.52,0,0,1,16-4,114.24,114.24,0,0,1,12.57-1.4l1-10.36a129,129,0,0,0-15.36,1.6A130.72,130.72,0,0,0,209.84,126.63Zm46.73-6.21,1,10.33a119.42,119.42,0,0,1,98.21,63.9l9.51-4A129.69,129.69,0,0,0,256.57,120.42Z"/>
              <path class="cls-4" d="M261.76,156.12l.51,5a89.88,89.88,0,1,1-24.54,0l.51-5a94.57,94.57,0,1,0,23.52,0Z"/>
              <path class="cls-4" d="M284.67,282.59,271.78,260a25.51,25.51,0,0,0,1.94-3.92l52.16-8.2-51.56-8.1a24.89,24.89,0,0,0-2-4.91l12.38-21.65-21.29,12.15a25.57,25.57,0,0,0-4.68-2.26L250,120.67l-8.7,102.48a25.22,25.22,0,0,0-4.68,2.25l-21.29-12.14,12.38,21.64a25.26,25.26,0,0,0-2,4.92l-51.55,8.1,52.15,8.19a25.22,25.22,0,0,0,1.95,3.93l-12.89,22.55,22.93-13.1A25,25,0,0,0,241.7,271l8.3,52.83L258.3,271a25,25,0,0,0,3.44-1.49Z"/>
            </g>
          </g>
        </g>
      </g>
    </g>
  </g>
</svg>
